Ciencia de Datos: Tendencias Globales en Salarios y Empleos – trabajo_BigData
…
                      labs( title = "Mapa mundial de salarios promedio por ubicación",
                            subtitle = "Coloreado por salario promedio (USD)",
                            fill = "Avg Salary (USD)") +
                      theme_minimal() +
                      theme( text = element_text(family = "Arial", color = "#333333"),
                             plot.title = element_text(size = 16, face = "bold", hjust = 0.5, color = "#2C3E50"),
                             plot.subtitle = element_text(size = 12, face = "italic", hjust = 0.5, color = "#5D6D7E"),
                             axis.title = element_blank(),
                             axis.text = element_blank(),
                             panel.grid = element_blank(),
                             panel.background = element_rect(fill = "#FBFCFC", color = NA),
                             plot.background = element_rect(fill = "#F9FAFB", color = NA),
                             plot.margin = margin(10, 10, 10, 10))
df
## # A tibble: 72 × 3
##    company_location  salary region              
##    <chr>              <dbl> <chr>               
##  1 AE               100000  United Arab Emirates
##  2 AL                10000  Albania             
##  3 AM                50000  Armenia             
##  4 AR                25000  Argentina           
##  5 AS                29351  American Samoa      
##  6 AT                71355. Austria             
##  7 AU                80033. Australia           
##  8 BA               120000  Bosnia & Herzegovina
##  9 BE                76865. Belgium             
## 10 BO                 7500  Bolivia             
## # ℹ 62 more rows
…
